name;id_number;salary
John;47524;10488
Daniel;84361;19105
Heather;93808;18376
Joseph;18213;14393
Jessica;10939;20675
Nicole;63081;12002
James;69446;15182
Matthew;43628;20993
Christopher;66333;11480
Amanda;30724;20616
Stephanie;73252;23103
Michelle;27386;10702
Melissa;68348;6505
Michael;70563;16094
David;80149;5119
Jennifer;23594;18446
Robert;69533;23735
Sarah;93126;10840
Amy;46699;6374
Laura;27315;16184
Jason;44734;6252
Ryan;52321;21860
Kevin;51483;5537
Rebecca;17665;19681
Kelly;95487;9056
Brian;24735;18787
Angela;90876;23850
Joshua;81661;5071
William;43959;7295
Elizabeth;64402;21700